{
    "$schema": "https://themost-framework.github.io/themost/models/2018/2/schema.json",
    "@id": "http://schema.org/Comment",
    "name": "Comment",
    "description": "A comment on an item - for example, a comment on a blog post. The comment's content is expressed via the text property",
    "title": "Comment",
    "abstract": false,
    "sealed": false,
    "hidden": true,
    "implements": "Thing",
    "version": "1.0",
    "fields": [
        {
            "@id": "http://schema.org/text",
            "name": "text",
            "title": "text",
            "description": "The textual content of this comment.",
            "type": "Note"
        }
    ],
    "privileges": [
        {
            "mask": 15,
            "type": "global"
        },
        {
            "mask": 15,
            "type": "global",
            "account": "Administrators"
        }
    ]
}