{
  "$schema": "https://themost-framework.github.io/themost/models/2018/2/schema.json",
  "@id": "https://universis.io/schemas/InstituteType",
  "name": "InstituteType",
  "title": "InstituteTypes",
  "hidden": false,
  "sealed": false,
  "abstract": false,
  "caching": "always",
  "implements": "Enumeration",
  "category": "lookup",
  "version": "1.0",
  "fields": [
    {
      "name": "id",
      "@id": "https://themost.io/schemas/id",
      "title": "ID",
      "description": "The identifier of an item.",
      "type": "Integer",
      "nullable": false,
      "primary": true,
      "value": "javascript:return this.newid();"
    },
    {
      "@id": "http://schema.org/alternateName",
      "@overrides": "alternateName",
      "name": "alternateName",
      "title": "alternateName",
      "description": "An alias for the item.",
      "type": "Text",
      "nullable": false
    }
  ],
  "privileges": [
    {
      "mask": 1,
      "type": "global",
      "account": "*"
    },
    {
      "mask": 15,
      "type": "global"
    },
    {
      "mask": 15,
      "type": "global",
      "account": "Administrators"
    }
  ],
  "constraints": [
    {
      "type": "unique",
      "fields": [
        "name"
      ]
    }
  ],
  "seed": [
    {
      "id": 1,
      "alternateName": "university",
      "name": "Higher Level Educational Institute",
      "description": "A university is an institution of higher (or tertiary) education and research",
      "identifier": 1
    },
    {
      "id": 2,
      "alternateName": "technologicalInstitute",
      "name": "Technological Educational Institute",
      "description": "A technological educational institute offers higher (or tertiary) technological education",
      "identifier": 2
    }
  ],
  "eventListeners": [
    {
      "type": "./listeners/lookup-cache-listener.js"
    }
  ]
}
