{
  "$schema": "https://themost-framework.github.io/themost/models/2018/2/schema.json",
  "@id": "https://universis.io/schemas/LocalDepartment",
  "name": "LocalDepartment",
  "title": "Τμήματα που ανήκουν στο τοπικό ίδρυμα",
  "hidden": false,
  "sealed": false,
  "version": "0.4",
  "inherits": "Department",
  "source": "LocalDepartmentBase",
  "view": "LocalDepartmentData",
  "fields": [
    {
      "name": "id",
      "title": "Κωδικός",
      "description": "Μοναδικός κωδικός τμήματος",
      "type": "Text",
      "nullable": false,
      "size": 5,
      "primary": true
    },
    {
      "name": "checkCourseRules",
      "title": "Έλεγχος προϋποθέσεων μαθήματος",
      "description": "Έλεγχος προϋποθέσεων μαθήματος κατά τη δήλωση μαθήματος (ΝΑΙ/ΟΧΙ).",
      "type": "Boolean",
      "calculation": "javascript:return this.convertStrictBoolean(this.target,'checkCourseRules');"
    },
    {
      "name": "checkSemesterRules",
      "title": "Έλεγχος προϋποθέσεων εξαμήνου προγράμματος σπουδών",
      "description": "Έλεγχος προϋποθέσεων εξαμήνου προγράμματος σπουδών κατά τη δήλωση μαθημάτων (ΝΑΙ/ΟΧΙ)",
      "type": "Boolean",
      "calculation": "javascript:return this.convertStrictBoolean(this.target,'checkSemesterRules');"
    },
    {
      "name": "checkCustomRules",
      "title": "Έλεγχος ειδικών προϋποθέσεων",
      "description": "Έλεγχος ειδικών προϋποθέσεων που αφορούν ειδικούς κανόνες που ισχύουν για το τμήμα",
      "type": "Boolean",
      "calculation": "javascript:return this.convertStrictBoolean(this.target,'checkCustomRules');"
    },
    {
      "name": "checkScheduleRules",
      "title": "Έλεγχος προϋποθέσεων προγράμματος διδασκαλίας",
      "description": "Έλεγχος προϋποθέσεων προγράμματος διδασκαλίας (επικαλύψεις ωρών κλπ)",
      "type": "Boolean",
      "calculation": "javascript:return this.convertStrictBoolean(this.target,'checkScheduleRules');"
    },
    {
      "name": "isRegistrationPeriod",
      "title": "Περίοδος Δηλώσεων",
      "description": "Είναι περίοδος δηλώσεων (ΝΑΙ/ΟΧΙ).",
      "type": "Boolean",
      "calculation": "javascript:return this.convertStrictBoolean(this.target,'isRegistrationPeriod');"
    },
    {
      "name": "registrationPeriodNotes",
      "title": "Πληροφορίες Περιόδου Δηλώσεων",
      "description": "Πληροφορίες περιόδου δηλώσεων (σημειώσεις και οδηγίες που εμφανίζονται στους φοιτητές κατά τη δήλωση μαθημάτων).",
      "type": "Text"
    },
    {
      "name": "registrationPeriodStart",
      "title": "Ημερομηνία έναρξης δηλώσεων μαθημάτων",
      "description": "Ημερομηνία έναρξης δηλώσεων μαθημάτων",
      "type": "DateTime"
    },
    {
      "name": "registrationPeriodEnd",
      "title": "Ημερομηνία λήξης δηλώσεων μαθημάτων",
      "description": "Ημερομηνία λήξης δηλώσεων μαθημάτων",
      "type": "DateTime"
    },
    {
      "name": "allowRegistrationChange",
      "title": "Τροποποίηση δηλώσεων μαθημάτων",
      "description": "Επιτρέπεται η τροποποίηση δηλώσεων μαθημάτων (ΝΑΙ/ΟΧΙ).",
      "type": "Boolean",
      "calculation": "javascript:return this.convertStrictBoolean(this.target,'allowRegistrationChange');"
    },
    {
      "name": "webShowGrades",
      "title": "Εμφάνιση βαθμολογιών μαθημάτων",
      "description": "Εμφάνιση βαθμολογιών μαθημάτων στο site των φοιτητών (ΝΑΙ/ΟΧΙ)",
      "type": "Boolean",
      "calculation": "javascript:return this.convertStrictBoolean(this.target,'webShowGrades');"
    },
    {
      "name": "webResultsYear",
      "title": "Ακαδημαϊκό έτος εμφάνισης βαθμολογιών μαθημάτων",
      "description": "Ακαδημαϊκό έτος εμφάνισης βαθμολογιών μαθημάτων στο site των φοιτητών",
      "type": "Short"
    },
    {
      "name": "webResultsViewType",
      "title": "Μορφή προβολής βαθμολογιών μαθημάτων",
      "description": "Μορφή προβολής βαθμολογιών μαθημάτων (ονοματεπώνυμο, μόνο αριθμοί μητρώου)",
      "type": "Short"
    },
    {
      "name": "allowSpecialtySelection",
      "title": "Επιλογή κατεύθυνσης φοιτητή",
      "description": "Επιτρέπεται η επιλογή κατεύθυνσης φοιτητή εφόσον το πρόγραμμα σπουδών το επιτρέπει",
      "type": "Boolean",
      "calculation": "javascript:return this.convertStrictBoolean(this.target,'allowSpecialtySelection');"
    },
    {
      "name": "studentInstituteIdentifierFormat",
      "title": "Student institute identifier format",
      "description": "Student institute identifier format",
      "type": "Text",
      "size": "50"
    },
    {
      "name": "studentIdentifierFormat",
      "title": "Student identifier format",
      "description": "Student identifier format",
      "type": "Text",
      "size": "50"
    },
    {
      "name": "studentIdentifierIndex",
      "title": "Student identifier index",
      "description": "Student identifier index",
      "type": "Integer"
    },
    {
      "name": "studentInstituteIdentifierIndex",
      "title": "Student institute identifier index",
      "description": "Student identifier index",
      "type": "Integer"
    },
    {
      "name": "programGroupDecimalDigits",
      "title": "Αριθμός δεκαδικών ομαδικού βαθμού ομάδας",
      "description": "Ο αριθμός των δεκαδικών ψηφίων του βαθμού της ομάδας εφόσον υπολογίζεται ως ένα μάθημα",
      "type": "Integer",
      "nullable": false
    },
    {
      "name": "complexCoursesDecimalDigits",
      "title": "Αριθμός δεκαδικών βαθμού σύνθετου μαθήματος",
      "description": "Ο αριθμός των δεκαδικών ψηφίων του βαθμού ενός σύνθετου μαθήματος",
      "type": "Integer",
      "nullable": false
    },
    {
      "name": "locales",
      "type": "DepartmentLocale",
      "mapping": {
        "associationType": "association",
        "cascade": "delete",
        "parentModel": "LocalDepartment",
        "parentField": "id",
        "childModel": "DepartmentLocale",
        "childField": "object"
      }
    },
    {
      "name": "locale",
      "type": "DepartmentLocale",
      "readonly": true,
      "editable": false,
      "many": true,
      "expandable": true,
      "multiplicity": "ZeroOrOne",
      "mapping": {
        "associationType": "association",
        "cascade": "delete",
        "parentModel": "LocalDepartment",
        "parentField": "id",
        "childModel": "DepartmentLocale",
        "childField": "object",
        "options": {
          "$filter": "inLanguage eq lang()",
          "$first": true
        }
      }
    },
    {
      "name": "reportVariables",
      "type": "DepartmentReportVariableValue",
      "many": true,
      "mapping": {
        "associationType": "association",
        "parentModel": "LocalDepartment",
        "parentField": "id",
        "childModel": "DepartmentReportVariableValue",
        "childField": "department"
      }
    }
  ],
  "views": [
    {
      "name": "Local",
      "filter": "localDepartment eq true"
    }
  ],
  "privileges": [
    {
      "mask": 1,
      "type": "global",
      "account": "*"
    },
    {
      "mask": 15,
      "type": "global"
    },
    {
      "mask": 15,
      "type": "global",
      "account": "Administrators"
    },
    {
      "mask": 5,
      "type": "self",
      "account": "Registrar",
      "filter": "id eq departments()"
    }
  ],
  "eventListeners": [
    {
      "name": "Lookup Cache Listener",
      "type": "./listeners/noop-listener.js"
    },
    {
      "type": "./listeners/data-localization"
    }
  ]
}
