{
  "$schema": "https://themost-framework.github.io/themost/models/2018/2/schema.json",
  "@id": "https://themost.io/schemas/RequestSuspendAction",
  "name": "RequestSuspendAction",
  "description": "The act of requesting a study suspension",
  "title": "RequestSuspendAction",
  "abstract": false,
  "sealed": false,
  "inherits": "StudentRequestAction",
  "version": "1.2",
  "fields": [
    {
      "@id": "http://schema.org/additionalType",
      "name": "additionalType",
      "readonly": true,
      "nullable": false,
      "value": "javascript:return this.model.name;"
    },
    {
      "@id": "http://schema.org/actionStatus",
      "name": "actionStatus",
      "title": "actionStatus",
      "description": "Indicates the current disposition of the Action.",
      "type": "ActionStatusType",
      "value": "javascript:return { alternateName:'ActiveActionStatus' };"
    },
    {
      "@id": "http://schema.org/agent",
      "name": "agent",
      "title": "agent",
      "description": "The direct performer or driver of the action.",
      "type": "User",
      "value": "javascript:return null;"
    },
    {
      "name": "suspensionPeriod",
      "title": "The academic period in which a suspension of studies starts",
      "description": "Suspension academic period",
      "type": "AcademicPeriod",
      "expandable": true,
      "nullable": false
    },
    {
      "name": "suspensionYear",
      "title": "Suspension academic year",
      "description": "The academic year in which a suspension of studies starts",
      "type": "AcademicYear",
      "expandable": true,
      "nullable": false
    },
    {
      "name": "suspensionPeriods",
      "title": "Number of periods",
      "description": "The number of periods that a suspension of studies lasts",
      "type": "Number",
      "nullable": false,
      "validation": {
        "type": "PositiveInteger"
      }
    },
    {
      "name": "suspensionType",
      "title": "Suspension type",
      "description": "The type of this suspension of studies",
      "type": "Text",
      "size": 60,
      "nullable": true
    }
  ],
  "eventListeners": [
    {
      "type": "@themost/data/previous-state-listener"
    },
    {
      "type": "./listeners/validate-student-request-type-listener"
    },
    {
      "type": "./listeners/after-request-action-claimed-listener"
    },
    {
      "type": "./listeners/after-reject-request-suspend-action-listener"
    }
  ],
  "privileges": [
    {
      "mask": 15,
      "type": "global"
    },
    {
      "mask": 15,
      "type": "global",
      "account": "Administrators"
    },
    {
      "mask": 1,
      "type": "self",
      "filter": "student eq student() or owner eq me()",
      "account": "Students",
      "description": "A student has access to read items which associated with its own record. and have been created by him or her."
    },
    {
      "mask": 2,
      "type": "self",
      "filter": "student eq student() and agent eq null and student/studentStatus/alternateName eq 'active' and owner eq me() and actionStatus/alternateName eq 'ActiveActionStatus'",
      "account": "Students",
      "description": "An active student has access to add an item in active state which associated with its own record."
    },
    {
      "mask": 15,
      "type": "self",
      "account": "Registrar",
      "filter": "student/department eq departments()"
    }
  ]
}
