{
  "$schema": "https://themost-framework.github.io/themost/models/2018/2/schema.json",
  "@id": "https://universis.io/schemas/RuleOperator",
  "name": "RuleOperator",
  "title": "Rule operators",
  "description": "Τελεστές κανόνων",
  "hidden": false,
  "sealed": false,
  "abstract": false,
  "caching": "always",
  "implements": "Enumeration",
  "category": "lookup",
  "version": "1.0",
  "fields": [
    {
      "name": "id",
      "title": "Id",
      "type": "Counter",
      "nullable": false,
      "primary": true
    }
  ],
  "privileges": [
    {
      "mask": 1,
      "type": "global",
      "account": "*"
    },
    {
      "mask": 15,
      "type": "global"
    },
    {
      "mask": 15,
      "type": "global",
      "account": "Administrators"
    }
  ],
  "constraints": [
    {
      "type": "unique",
      "description": "Alternate name must be unique across different records",
      "fields": [
        "alternateName"
      ]
    },
    {
      "type": "unique",
      "description": "Name must be unique across different records",
      "fields": [
        "name"
      ]
    }
  ],
  "seed": [
    {
      "alternateName": "equal",
      "name": "%s must be equal to %s",
      "identifier": 0,
      "description": "ίσο με"
    },
    {
      "alternateName": "contains",
      "name": "%s must contain '%s",
      "identifier": 1,
      "description": "περιέχει"
    },
    {
      "alternateName": "notEqual",
      "name": "%s must be different from %s",
      "identifier": 2,
      "description": "διάφορο από"
    },
    {
      "alternateName": "greaterThan",
      "name": "%s must be greater than %s",
      "identifier": 3,
      "description": "μεγαλύτερο από"
    },
    {
      "alternateName": "lowerThan",
      "name": "%s must be lower than %s",
      "identifier": 4,
      "description": "μικρότερο από"
    },
    {
      "alternateName": "between",
      "name": "%s must be between %s and %s",
      "identifier": 5,
      "description": "ανάμεσα από"
    },
    {
      "alternateName": "startsWith",
      "name": "%s must start with '%s'",
      "identifier": 6,
      "description": "αρχίζει από"
    },
    {
      "alternateName": "notContains",
      "name": "%s must not contain '%s'",
      "identifier": 7,
      "description": "δεν περιέχει"
    },
    {
      "alternateName": "greaterOrEqual",
      "name": "%s must be greater or equal to %s",
      "identifier": 8,
      "description": "μεγαλύτερο ή ίσο από"
    },
    {
      "alternateName": "lowerOrEqual",
      "name": "%s must be lower or equal to %s",
      "identifier": 9,
      "description": "μικρότερο ή ίσο από"
    }
  ],
  "eventListeners": [
    {
      "name": "Lookup Cache Listener",
      "type": "./listeners/lookup-cache-listener.js"
    }
  ]
}
