{
    "$schema": "https://themost-framework.github.io/themost/models/2018/2/schema.json",
    "@id": "http://schema.org/StructuredValue",
    "name": "StructuredValue",
    "description": "Structured values are used when the value of a property has a more complex structure than simply being a textual value or a reference to another thing.",
    "title": "StructuredValue",
    "abstract": false,
    "sealed": false,
    "hidden": true,
    "implements": "Intangible",
    "version": "1.0",
    "fields": [
        {
            "@id": "http://schema.org/additionalType",
            "name": "additionalType",
            "title": "additionalType",
            "description": "An additional type for the item.",
            "type": "URL",
            "value": "javascript:return this.model.name",
            "nullable": false,
            "readonly": true
        }
    ],
    "privileges": [
        {
            "mask": 15,
            "type": "global"
        },
        {
            "mask": 15,
            "type": "global",
            "account": "Administrators"
        }
    ]
}
