{
  "$schema": "https://themost-framework.github.io/themost/models/2018/2/schema.json",
  "@id": "https://universis.io/schemas/StudentProgramGroup",
  "name": "StudentProgramGroup",
  "title": "Student program groups",
  "hidden": false,
  "sealed": false,
  "version": "0.3",
  "source": "StudentProgramGroupBase",
  "view": "StudentProgramGroupData",
  "fields": [
    {
      "name": "id",
      "title": "Id",
      "description": "Id",
      "type": "Text",
      "nullable": false,
      "size": 36,
      "primary": true,
      "readonly": true,
      "value": "javascript:return this.newGuid();"
    },
    {
      "name": "programGroup",
      "title": "Ομάδα",
      "description": "Κωδικός ομάδας προγράμματος σπουδών",
      "type": "ProgramGroup",
      "nullable": true
    },
    {
      "name": "student",
      "property": "student",
      "title": "Κωδικός φοιτητή",
      "description": "Κωδικός φοιτητή",
      "type": "Student",
      "nullable": false,
      "editable": false
    },
    {
      "name": "gradeYear",
      "title": "Ακαδημαϊκό έτος βαθμολογίας",
      "description": "Ακαδημαϊκό έτος βαθμολογίας",
      "type": "AcademicYear",
      "expandable": true
    },
    {
      "name": "gradePeriod",
      "title": "Περίοδος βαθμολογίας",
      "description": "Περίοδος βαθμολογίας",
      "type": "AcademicPeriod",
      "expandable": true
    },
    {
      "name": "semester",
      "title": "Εξάμηνο μαθήματος",
      "description": "Εξάμηνο μαθήματος",
      "type": "Semester",
      "expandable": true,
      "calculation": "javascript:return 1",
      "nullable": false
    },
    {
      "name": "specialty",
      "title": "Κατεύθυνση μαθήματος",
      "description": "Κατεύθυνση μαθήματος",
      "type": "Integer",
      "nullable": true,
      "size": 4
    },
    {
      "name": "units",
      "title": "Διδακτικές μονάδες",
      "description": "Διδακτικές μονάδες",
      "type": "Number",
      "nullable": true,
      "size": 4
    },
    {
      "name": "coefficient",
      "title": "Συντελεστής πτυχίου",
      "description": "Συντελεστής πτυχίου",
      "type": "Number",
      "nullable": true,
      "size": 4
    },
    {
      "name": "grade",
      "title": "Βαθμός (0-1)",
      "description": "Βαθμός (0-1)",
      "type": "Number",
      "nullable": true,
      "size": 4
    },
    {
      "name": "gradePeriodDescription",
      "title": "Περιγραφή εξεταστικής περιόδου (μπορεί να περιέχει και ημερομηνία)",
      "description": "Περιγραφή εξεταστικής περιόδου (μπορεί να περιέχει και ημερομηνία)",
      "type": "Text",
      "nullable": true,
      "size": 10
    },
    {
      "name": "courseType",
      "title": "Τύπος μαθήματος",
      "description": "Τύπος μαθήματος",
      "type": "CourseType",
      "nullable": true,
      "expandable": true
    },
    {
      "name": "calculateUnits",
      "title": "Υπολογίζονται οι ΔΜ για τη λήψη πτυχίου",
      "description": "Υπολογίζονται οι ΔΜ για τη λήψη πτυχίου",
      "type": "Boolean",
      "calculation": "javascript:return this.convertStrictBoolean(this.target,'calculateUnits');",
      "value": "javascript:return -1;",
      "nullable": false
    },
    {
      "name": "calculateGrade",
      "title": "Υπολογίζεται στο βαθμό πτυχίου (ΝΑΙ/ΟΧΙ)",
      "description": "Υπολογίζεται στο βαθμό πτυχίου (ΝΑΙ/ΟΧΙ)",
      "nullable": false,
      "calculation": "javascript:return this.convertStrictBoolean(this.target,'calculateUnits');",
      "value": "javascript:return -1;",
      "nullable": false
    },
    {
      "name": "calculateGroupGrade",
      "title": "Ομαδικός βαθμός (ΝΑΙ/ΟΧΙ)",
      "description": "Ομαδικός βαθμός (ΝΑΙ/ΟΧΙ)",
      "nullable": false,
      "calculation": "javascript:return this.convertStrictBoolean(this.target,'calculateGroupGrade');",
      "nullable": false
    },
    {
      "name": "ects",
      "title": "Μονάδες ECTS",
      "description": "Μονάδες ECTS",
      "type": "Number",
      "nullable": true,
      "size": 4
    },
    {
      "name": "minCourses",
      "title": "Ελάχιστος αριθμός μαθημάτων",
      "description": "Ελάχιστος αριθμός μαθημάτων",
      "type": "Integer",
      "nullable": true,
      "size": 4
    },
    {
      "name": "maxCourses",
      "title": "Μέγιστος αριθμός μαθημάτων",
      "description": "Μέγιστος αριθμός μαθημάτων",
      "type": "Integer",
      "nullable": true,
      "size": 4
    },
    {
      "name": "isPassed",
      "title": "Passed course",
      "description": "Το μάθημα έχει περαστεί",
      "type": "Number",
      "readonly": true
    },
    {
      "name": "dateModified",
      "title": "Ημερομηνία τελευταίας τροποποίησης",
      "description": "Ημερομηνία τελευταίας τροποποίησης",
      "type": "DateTime",
      "nullable": false,
      "value": "javascript:return new Date();",
      "calculation": "javascript:return this.now();"
    },
    {
      "name": "formattedGrade",
      "title": "Βαθμός (στην κλίμακα)",
      "description": "Βαθμός (ανηγμένος στην κλίμακα)",
      "type": "Text",
      "readonly": true
    }
  ],
  "eventListeners": [
    {
      "type": "@themost/data/previous-state-listener"
    },
    {
      "type": "./listeners/student-program-group-listener"
    }
  ],
  "constraints": [
    {
      "type": "unique",
      "description": "A student group must be unique for a program group.",
      "fields": [
        "student",
        "programGroup"
      ]
    }
  ],
  "privileges": [
    {
      "mask": 1,
      "type": "self",
      "filter": "student eq student()",
      "account": "Students"
    },
    {
      "mask": 15,
      "type": "global",
      "account": "Administrators"
    },
    {
      "mask": 15,
      "type": "global"
    },
    {
      "mask": 15,
      "type": "self",
      "account": "Registrar",
      "filter": "student/department eq departments()"
    }
  ]
}
