{
  "$schema": "https://themost-framework.github.io/themost/models/2018/2/schema.json",
  "@id": "http://schema.org/UpdateAction",
  "name": "UpdateAction",
  "description": "The act of managing by changing/editing the state of the object.",
  "title": "UpdateAction",
  "abstract": false,
  "sealed": false,
  "inherits": "Action",
  "version": "1.6",
  "fields": [
    {
      "@id": "http://schema.org/initiator",
      "name": "initiator",
      "title": "Initial action",
      "description": "Indicates whether an action has been derived from another action made by a user.",
      "type": "Action"
    }
  ],
  "privileges": [
    {
      "mask": 15,
      "type": "global"
    },
    {
      "mask": 15,
      "type": "global",
      "account": "Administrators"
    }
  ]
}
