{
  "$schema": "https://themost-framework.github.io/themost/models/2018/2/schema.json",
  "@id": "https://universis.io/schemas/Workspace",
  "name": "Workspace",
  "title": "Workspace",
  "hidden": false,
  "sealed": false,
  "version": "0.1",
  "source": "WorkspaceBase",
  "view": "WorkspaceData",
  "fields": [
    {
      "name": "id",
      "title": "Μοναδικός κωδικός",
      "description": "Μοναδικός κωδικός",
      "type": "Text",
      "nullable": false,
      "size": 5,
      "primary": true
    },
    {
      "name": "databaseStatus",
      "title": "Status",
      "description": "Status",
      "type": "Text",
      "nullable": true,
      "size": 255
    },
    {
      "name": "dateLastAttached",
      "title": "Ημερομηνία τελευταίας ενημέρωσης",
      "description": "Ημερομηνία τελευταίας ενημέρωσης",
      "type": "DateTime"
    },
    {
      "name": "dateModified",
      "title": "Ημερομηνία τελευταίας τροποποίησης",
      "description": "Ημερομηνία τελευταίας τροποποίησης",
      "type": "DateTime",
      "nullable": false,
      "value": "javascript:return this.now();",
      "calculation": "javascript:return this.now();"
    }
  ],
  "privileges": [
    {
      "mask": 1,
      "type": "global",
      "account": "*"
    },
    {
      "mask": 15,
      "type": "global",
      "account": "Administrators"
    },
    {
      "mask": 15,
      "type": "global"
    }
  ]
}
